﻿  Using 'git status' to determine working set for adaptive non-unity build (E:\_Dev\Unreal\unreal_tutorials).
  Parsing headers for SimpleShooterEditor
    Running UnrealHeaderTool "E:\_Dev\Unreal\unreal_tutorials\SimpleShooter\SimpleShooter.uproject" "E:\_Dev\Unreal\unreal_tutorials\SimpleShooter\Intermediate\Build\Win64\SimpleShooterEditor\DebugGame\SimpleShooterEditor.uhtmanifest" -LogCmds="loginit warning, logexit warning, logdatabase error" -Unattended -WarningsAsErrors -abslog="C:\Users\alfre\AppData\Local\UnrealBuildTool\Log_UHT.txt" -installed
  Reflection code generated for SimpleShooterEditor in 7.2303673 seconds
  Building SimpleShooterEditor...
  Using Visual Studio 2019 14.27.29111 toolchain (C:\Program Files (x86)\Microsoft Visual Studio\2019\Community\VC\Tools\MSVC\14.27.29110) and Windows 10.0.16299.0 SDK (C:\Program Files (x86)\Windows Kits\10).
  Building 6 actions with 12 processes...
    [1/6] SimpleShooter.init.gen.cpp
    [2/6] BTTask_Shoot.gen.cpp
    [3/6] BTTask_Shoot.cpp
    [4/6] UE4Editor-SimpleShooter-Win64-DebugGame.lib
       Creating library E:\_Dev\Unreal\unreal_tutorials\SimpleShooter\Intermediate\Build\Win64\UE4Editor\DebugGame\SimpleShooter\UE4Editor-SimpleShooter-Win64-DebugGame.lib and object E:\_Dev\Unreal\unreal_tutorials\SimpleShooter\Intermediate\Build\Win64\UE4Editor\DebugGame\SimpleShooter\UE4Editor-SimpleShooter-Win64-DebugGame.exp
    [5/6] UE4Editor-SimpleShooter-Win64-DebugGame.dll
       Creating library E:\_Dev\Unreal\unreal_tutorials\SimpleShooter\Intermediate\Build\Win64\UE4Editor\DebugGame\SimpleShooter\UE4Editor-SimpleShooter-Win64-DebugGame.suppressed.lib and object E:\_Dev\Unreal\unreal_tutorials\SimpleShooter\Intermediate\Build\Win64\UE4Editor\DebugGame\SimpleShooter\UE4Editor-SimpleShooter-Win64-DebugGame.suppressed.exp
    [6/6] SimpleShooterEditor-Win64-DebugGame.target
  Total time in Parallel executor: 2.59 seconds
  Total execution time: 10.58 seconds
